{
    "properties": [], 
    "externalReferences": [], 
    "innerClasses": [], 
    "interfaces": [], 
    "constructors": [], 
    "namespace": null, 
    "name": "PostInstallClasshandler", 
    "tableDeclaration": {
        "type": "PostInstallClasshandler", 
        "modifiers": [
            "global"
        ], 
        "references": [], 
        "location": {
            "column": 14, 
            "line": 4
        }, 
        "name": "PostInstallClasshandler"
    }, 
    "key": "01p28000009Toe0AAC", 
    "variables": [
        {
            "type": "LIST", 
            "modifiers": [], 
            "references": [], 
            "location": {
                "column": 35, 
                "line": 10
            }, 
            "name": "ListLabelChanger"
        }, 
        {
            "type": "LabelChanger__c", 
            "modifiers": [], 
            "references": [], 
            "location": {
                "column": 30, 
                "line": 11
            }, 
            "name": "LabelChangerSettingsCategory"
        }, 
        {
            "type": "LabelChanger__c", 
            "modifiers": [], 
            "references": [], 
            "location": {
                "column": 28, 
                "line": 12
            }, 
            "name": "LabelChangerSettingsLocation"
        }, 
        {
            "type": "LabelChanger__c", 
            "modifiers": [], 
            "references": [], 
            "location": {
                "column": 28, 
                "line": 13
            }, 
            "name": "LabelChangerSettingsServiceProvider"
        }, 
        {
            "type": "LabelChanger__c", 
            "modifiers": [], 
            "references": [], 
            "location": {
                "column": 28, 
                "line": 14
            }, 
            "name": "LabelChangerSettingsCustomer"
        }, 
        {
            "type": "LabelChanger__c", 
            "modifiers": [], 
            "references": [], 
            "location": {
                "column": 28, 
                "line": 15
            }, 
            "name": "LabelChangerSettingsAssistant"
        }, 
        {
            "type": "LabelChanger__c", 
            "modifiers": [], 
            "references": [], 
            "location": {
                "column": 28, 
                "line": 16
            }, 
            "name": "LabelChangerSettingsCategoryPlural"
        }, 
        {
            "type": "LabelChanger__c", 
            "modifiers": [], 
            "references": [], 
            "location": {
                "column": 28, 
                "line": 17
            }, 
            "name": "LabelChangerSettingsLocationPlural"
        }, 
        {
            "type": "LabelChanger__c", 
            "modifiers": [], 
            "references": [], 
            "location": {
                "column": 28, 
                "line": 18
            }, 
            "name": "LabelChangerSettingsServiceProviderPlural"
        }, 
        {
            "type": "LabelChanger__c", 
            "modifiers": [], 
            "references": [], 
            "location": {
                "column": 28, 
                "line": 19
            }, 
            "name": "LabelChangerSettingsCustomerPlural"
        }, 
        {
            "type": "LabelChanger__c", 
            "modifiers": [], 
            "references": [], 
            "location": {
                "column": 28, 
                "line": 20
            }, 
            "name": "LabelChangerSettingsAssistantPlural"
        }
    ], 
    "id": "01p28000009Toe0AAC", 
    "methods": [
        {
            "modifiers": [
                "static", 
                "global"
            ], 
            "name": "insertCustomSettingvalues", 
            "parameters": [], 
            "visibility": "GLOBAL", 
            "references": [], 
            "location": {
                "column": 21, 
                "line": 6
            }, 
            "returnType": "void", 
            "type": null
        }
    ]
}