{
    "properties": [
        {
            "modifiers": [
                "public"
            ], 
            "name": "evId", 
            "visibility": "PUBLIC", 
            "references": [], 
            "location": {
                "column": 19, 
                "line": 12
            }, 
            "type": "String"
        }, 
        {
            "modifiers": [
                "static", 
                "public"
            ], 
            "name": "listevent", 
            "visibility": "PUBLIC", 
            "references": [], 
            "location": {
                "column": 31, 
                "line": 9
            }, 
            "type": "LIST"
        }, 
        {
            "modifiers": [
                "static", 
                "public"
            ], 
            "name": "listeventwrapper", 
            "visibility": "PUBLIC", 
            "references": [], 
            "location": {
                "column": 38, 
                "line": 10
            }, 
            "type": "LIST"
        }, 
        {
            "modifiers": [
                "static", 
                "public"
            ], 
            "name": "listcontacts", 
            "visibility": "PUBLIC", 
            "references": [], 
            "location": {
                "column": 33, 
                "line": 11
            }, 
            "type": "LIST"
        }
    ], 
    "externalReferences": [], 
    "innerClasses": [
        {
            "properties": [
                {
                    "modifiers": [
                        "public"
                    ], 
                    "name": "eveid", 
                    "visibility": "PUBLIC", 
                    "references": [], 
                    "location": {
                        "column": 23, 
                        "line": 123
                    }, 
                    "type": "String"
                }, 
                {
                    "modifiers": [
                        "public"
                    ], 
                    "name": "Name", 
                    "visibility": "PUBLIC", 
                    "references": [], 
                    "location": {
                        "column": 23, 
                        "line": 124
                    }, 
                    "type": "String"
                }, 
                {
                    "modifiers": [
                        "public"
                    ], 
                    "name": "location", 
                    "visibility": "PUBLIC", 
                    "references": [], 
                    "location": {
                        "column": 23, 
                        "line": 125
                    }, 
                    "type": "String"
                }, 
                {
                    "modifiers": [
                        "public"
                    ], 
                    "name": "Category", 
                    "visibility": "PUBLIC", 
                    "references": [], 
                    "location": {
                        "column": 23, 
                        "line": 126
                    }, 
                    "type": "String"
                }, 
                {
                    "modifiers": [
                        "public"
                    ], 
                    "name": "Appointmenttype", 
                    "visibility": "PUBLIC", 
                    "references": [], 
                    "location": {
                        "column": 23, 
                        "line": 127
                    }, 
                    "type": "String"
                }, 
                {
                    "modifiers": [
                        "public"
                    ], 
                    "name": "locationId", 
                    "visibility": "PUBLIC", 
                    "references": [], 
                    "location": {
                        "column": 23, 
                        "line": 128
                    }, 
                    "type": "String"
                }, 
                {
                    "modifiers": [
                        "public"
                    ], 
                    "name": "CategoryId", 
                    "visibility": "PUBLIC", 
                    "references": [], 
                    "location": {
                        "column": 23, 
                        "line": 129
                    }, 
                    "type": "String"
                }, 
                {
                    "modifiers": [
                        "public"
                    ], 
                    "name": "AppointmenttypeId", 
                    "visibility": "PUBLIC", 
                    "references": [], 
                    "location": {
                        "column": 23, 
                        "line": 130
                    }, 
                    "type": "String"
                }, 
                {
                    "modifiers": [
                        "public"
                    ], 
                    "name": "ServiceproviderId", 
                    "visibility": "PUBLIC", 
                    "references": [], 
                    "location": {
                        "column": 23, 
                        "line": 131
                    }, 
                    "type": "String"
                }, 
                {
                    "modifiers": [
                        "public"
                    ], 
                    "name": "addeddate", 
                    "visibility": "PUBLIC", 
                    "references": [], 
                    "location": {
                        "column": 23, 
                        "line": 132
                    }, 
                    "type": "String"
                }, 
                {
                    "modifiers": [
                        "public"
                    ], 
                    "name": "Des", 
                    "visibility": "PUBLIC", 
                    "references": [], 
                    "location": {
                        "column": 23, 
                        "line": 133
                    }, 
                    "type": "String"
                }, 
                {
                    "modifiers": [
                        "public"
                    ], 
                    "name": "relid", 
                    "visibility": "PUBLIC", 
                    "references": [], 
                    "location": {
                        "column": 23, 
                        "line": 134
                    }, 
                    "type": "String"
                }, 
                {
                    "modifiers": [
                        "public"
                    ], 
                    "name": "relname", 
                    "visibility": "PUBLIC", 
                    "references": [], 
                    "location": {
                        "column": 23, 
                        "line": 135
                    }, 
                    "type": "String"
                }, 
                {
                    "modifiers": [
                        "public"
                    ], 
                    "name": "relconno", 
                    "visibility": "PUBLIC", 
                    "references": [], 
                    "location": {
                        "column": 23, 
                        "line": 136
                    }, 
                    "type": "String"
                }, 
                {
                    "modifiers": [
                        "public"
                    ], 
                    "name": "relemail", 
                    "visibility": "PUBLIC", 
                    "references": [], 
                    "location": {
                        "column": 23, 
                        "line": 137
                    }, 
                    "type": "String"
                }
            ], 
            "externalReferences": [], 
            "innerClasses": [], 
            "interfaces": [], 
            "constructors": [
                {
                    "modifiers": [
                        "public"
                    ], 
                    "name": "eventwrapper", 
                    "parameters": [
                        {
                            "type": "Event", 
                            "name": "ev"
                        }
                    ], 
                    "visibility": "PUBLIC", 
                    "references": [], 
                    "location": {
                        "column": 16, 
                        "line": 138
                    }, 
                    "type": null
                }
            ], 
            "namespace": null, 
            "name": "eventwrapper", 
            "tableDeclaration": {
                "type": "eventwrapper", 
                "modifiers": [
                    "public"
                ], 
                "references": [], 
                "location": {
                    "column": 18, 
                    "line": 120
                }, 
                "name": "eventwrapper"
            }, 
            "key": null, 
            "variables": [
                {
                    "type": "Event", 
                    "modifiers": [], 
                    "references": [], 
                    "location": {
                        "column": 35, 
                        "line": 138
                    }, 
                    "name": "ev"
                }, 
                {
                    "type": "Contact", 
                    "modifiers": [], 
                    "references": [], 
                    "location": {
                        "column": 21, 
                        "line": 141
                    }, 
                    "name": "ConRecSP"
                }, 
                {
                    "type": "String", 
                    "modifiers": [], 
                    "references": [], 
                    "location": {
                        "column": 20, 
                        "line": 142
                    }, 
                    "name": "whoid"
                }, 
                {
                    "type": "Boolean", 
                    "modifiers": [], 
                    "references": [], 
                    "location": {
                        "column": 21, 
                        "line": 162
                    }, 
                    "name": "checkForAnyCase"
                }, 
                {
                    "type": "EventRelation", 
                    "modifiers": [], 
                    "references": [], 
                    "location": {
                        "column": 36, 
                        "line": 181
                    }, 
                    "name": "evr"
                }, 
                {
                    "type": "Contact", 
                    "modifiers": [], 
                    "references": [], 
                    "location": {
                        "column": 33, 
                        "line": 185
                    }, 
                    "name": "ConRecCust"
                }, 
                {
                    "type": "Contact", 
                    "modifiers": [], 
                    "references": [], 
                    "location": {
                        "column": 33, 
                        "line": 193
                    }, 
                    "name": "ConRecCust"
                }, 
                {
                    "type": "Datetime", 
                    "modifiers": [], 
                    "references": [], 
                    "location": {
                        "column": 40, 
                        "line": 206
                    }, 
                    "name": "cdate"
                }, 
                {
                    "type": "Date", 
                    "modifiers": [], 
                    "references": [], 
                    "location": {
                        "column": 18, 
                        "line": 208
                    }, 
                    "name": "myDate"
                }, 
                {
                    "type": "String", 
                    "modifiers": [], 
                    "references": [], 
                    "location": {
                        "column": 20, 
                        "line": 209
                    }, 
                    "name": "StrmyDate"
                }, 
                {
                    "type": "Id", 
                    "modifiers": [], 
                    "references": [], 
                    "location": {
                        "column": 38, 
                        "line": 212
                    }, 
                    "name": "relid"
                }, 
                {
                    "type": "Contact", 
                    "modifiers": [], 
                    "references": [], 
                    "location": {
                        "column": 21, 
                        "line": 214
                    }, 
                    "name": "cont"
                }, 
                {
                    "type": "Contact", 
                    "modifiers": [], 
                    "references": [], 
                    "location": {
                        "column": 29, 
                        "line": 218
                    }, 
                    "name": "con"
                }
            ], 
            "id": null, 
            "methods": [
                {
                    "modifiers": [
                        "public"
                    ], 
                    "name": "getdate", 
                    "parameters": [
                        {
                            "type": "Datetime", 
                            "name": "cdate"
                        }
                    ], 
                    "visibility": "PUBLIC", 
                    "references": [], 
                    "location": {
                        "column": 23, 
                        "line": 206
                    }, 
                    "returnType": "String", 
                    "type": null
                }, 
                {
                    "modifiers": [
                        "public"
                    ], 
                    "name": "getcontact", 
                    "parameters": [
                        {
                            "type": "Id", 
                            "name": "relid"
                        }
                    ], 
                    "visibility": "PUBLIC", 
                    "references": [], 
                    "location": {
                        "column": 24, 
                        "line": 212
                    }, 
                    "returnType": "Contact", 
                    "type": null
                }
            ]
        }
    ], 
    "interfaces": [], 
    "constructors": [
        {
            "modifiers": [
                "public"
            ], 
            "name": "ViewWaitListController", 
            "parameters": [], 
            "visibility": "PUBLIC", 
            "references": [], 
            "location": {
                "column": 12, 
                "line": 13
            }, 
            "type": null
        }
    ], 
    "namespace": null, 
    "name": "ViewWaitListController", 
    "tableDeclaration": {
        "type": "ViewWaitListController", 
        "modifiers": [
            "public"
        ], 
        "references": [], 
        "location": {
            "column": 14, 
            "line": 7
        }, 
        "name": "ViewWaitListController"
    }, 
    "key": "01p28000005Z6TIAA0", 
    "variables": [
        {
            "type": "Event", 
            "modifiers": [], 
            "references": [], 
            "location": {
                "column": 27, 
                "line": 106
            }, 
            "name": "ev"
        }, 
        {
            "type": "LIST", 
            "modifiers": [], 
            "references": [], 
            "location": {
                "column": 82, 
                "line": 33
            }, 
            "name": "listofevents"
        }, 
        {
            "type": "String", 
            "modifiers": [], 
            "references": [], 
            "location": {
                "column": 16, 
                "line": 36
            }, 
            "name": "jsonformattedlist"
        }, 
        {
            "type": "String", 
            "modifiers": [], 
            "references": [], 
            "location": {
                "column": 16, 
                "line": 37
            }, 
            "name": "str"
        }, 
        {
            "type": "Event", 
            "modifiers": [], 
            "references": [], 
            "location": {
                "column": 27, 
                "line": 43
            }, 
            "name": "ev"
        }, 
        {
            "type": "String", 
            "modifiers": [], 
            "references": [], 
            "location": {
                "column": 16, 
                "line": 66
            }, 
            "name": "str"
        }, 
        {
            "type": "String", 
            "modifiers": [], 
            "references": [], 
            "location": {
                "column": 16, 
                "line": 67
            }, 
            "name": "str1"
        }, 
        {
            "type": "Event", 
            "modifiers": [], 
            "references": [], 
            "location": {
                "column": 27, 
                "line": 81
            }, 
            "name": "ev"
        }
    ], 
    "id": "01p28000005Z6TIAA0", 
    "methods": [
        {
            "modifiers": [
                "public"
            ], 
            "name": "geteventwrapperlist", 
            "parameters": [], 
            "visibility": "PUBLIC", 
            "references": [], 
            "location": {
                "column": 31, 
                "line": 95
            }, 
            "returnType": "LIST", 
            "type": null
        }, 
        {
            "modifiers": [
                "static", 
                "public"
            ], 
            "name": "getFilteredeventwrapperlistjson", 
            "parameters": [
                {
                    "type": "LIST", 
                    "name": "listofevents"
                }
            ], 
            "visibility": "PUBLIC", 
            "references": [], 
            "location": {
                "column": 38, 
                "line": 33
            }, 
            "returnType": "LIST", 
            "type": null
        }, 
        {
            "modifiers": [
                "static", 
                "public"
            ], 
            "name": "geteventwrapperlistjson", 
            "parameters": [], 
            "visibility": "PUBLIC", 
            "references": [], 
            "location": {
                "column": 26, 
                "line": 64
            }, 
            "returnType": "String", 
            "type": null
        }
    ]
}